{
	"layer": "top",
	"modules-left": ["sway/workspaces", "sway/mode", "pulseaudio#in2ndplace", "pulseaudio#in4thplace"],
	"modules-center": ["battery", "clock"],
	"modules-right": ["custom/syncthing", "disk", "cpu#12", "memory", "network#usb0", "network#enp0s20f0u2u2u3", "network#enp2s0f1", "network#wlp0s20f3", "keyboard-state"],
	"include": "~/.config/waybar/modules.json"
}
